{
   "belongs_to" : {
      "fetch" : 0
   },
   "has_many" : {
      "fetch" : 0
   },
   "might_have" : {
      "fetch" : 0
   },
   "sets" : [
      {
         "class" : "Lexicon",
         "quantity" : "all"
      },
      {
         "class" : "Grammar",
         "quantity" : "all"
      },
      {
         "quantity" : "all",
         "class" : "CollectionSessionItem"
      },
      {
         "quantity" : "all",
         "class" : "CollectionSession"
      },
      {
         "quantity" : "all",
         "class" : "MetaAccessLevel"
      },
      {
         "class" : "Decoding",
         "quantity" : "all"
      },
      {
         "class" : "MetaDataType",
         "quantity" : "all"
      },
      {
         "quantity" : "all",
         "class" : "Collection"
      },
      {
         "class" : "GrammarLexicon",
         "quantity" : "all"
      },
      {
         "quantity" : "all",
         "class" : "MetaLanguage"
      },
      {
         "quantity" : "all",
         "class" : "DecodingResult"
      },
      {
         "quantity" : "all",
         "class" : "CollectionParticipant"
      },
      {
         "quantity" : "all",
         "class" : "UserKey"
      },
      {
         "class" : "MetaLocation",
         "quantity" : "all"
      },
      {
         "class" : "Recogniser",
         "quantity" : "all"
      },
      {
         "quantity" : "all",
         "class" : "UserAccount"
      },
      {
         "class" : "MetaCountry",
         "quantity" : "all"
      },
      {
         "class" : "RecognitionModel",
         "quantity" : "all"
      },
      {
         "class" : "ApplicationUser",
         "quantity" : "all"
      },
      {
         "quantity" : "all",
         "class" : "MetaGender"
      },
      {
         "class" : "Application",
         "quantity" : "all"
      }
   ]
}
